0.888281573,398.3298539
0.902885387,437.9958246
1.03925242,483.9248434
1.254333561,523.5908142
1.483719563,561.1691023
1.634346615,598.7473904
1.634660515,642.5887265
1.677888999,680.1670146
1.714002422,724.0083507
1.649862233,765.7620042
1.700220726,799.1649269
1.657530356,836.743215
1.693628831,878.4968685
1.686737983,916.0751566
1.636902656,955.7411273
1.644376461,999.5824635
1.644675413,1041.336117
1.673584088,1078.914405
1.681057892,1122.755741
2.986133602,398.3298539
2.936283327,435.908142
2.886462947,477.6617954
2.807988002,517.3277662
2.743862761,561.1691023
2.672562668,602.9227557
2.63704715,642.5887265
2.594371727,682.2546973
2.594655732,721.9206681
2.487526221,759.4989562
2.473505364,801.2526096
2.473789368,840.9185804
2.459753564,880.5845511
2.381293566,922.3382046
2.309933682,955.7411273
2.381846628,999.5824635
2.18881321,1039.248434
2.246391398,1081.002088
2.339754162,1120.668058
4.267771461,400.4175365
4.225110986,442.17119
4.11795158,475.5741127
4.03231673,515.2400835
3.968191489,559.0814196
3.853917021,598.7473904
3.782616928,640.5010438
3.725621696,680.1670146
3.740255405,724.0083507
3.633110946,759.4989562
3.633380003,797.0772443
3.576399719,838.8308977
3.576713619,882.6722338
3.512558483,922.3382046
3.441183651,953.6534447
3.377088305,1001.670146
3.298598413,1039.248434
3.284562608,1078.914405
3.349285753,1118.580376
0.251618079,477.6617954
0.201812647,521.5031315
0.36674456,556.993737
0.417177792,600.8350731
0.446086467,638.4133612
0.496534646,684.34238
0.568372853,717.7453027
0.582976667,757.4112735
0.619060194,797.0772443
0.648013712,840.9185804
0.662602578,878.4968685
0.705831062,916.0751566
0.69178031,953.6534447
0.663409749,991.2317328
0.678073353,1039.248434
0.671167558,1074.73904
0.786054878,1120.668058