1.136902475,159.3326382
0.749477376,196.8717414
0.541485599,236.4963504
1.295500696,355.3701773
1.209548423,403.3368092
1.525457639,436.7049009
1.439505366,484.6715328
1.497056344,522.2106361
1.468490403,561.835245
1.382500711,599.3743483
1.389834906,643.1699687
1.540694803,682.7945777
1.318319023,714.0771637
1.139065314,762.0437956
1.088983241,805.8394161
1.445514915,159.3326382
1.646614047,198.9572471
1.517562154,236.4963504
1.675614052,280.2919708
1.532208092,317.831074
2.135236066,361.6266945
1.984653073,399.1657977
2.056573085,440.8759124
1.812688656,478.4150156
1.769768649,518.0396246
1.669432373,557.6642336
1.540410416,603.5453597
1.56208371,643.1699687
1.856469309,678.6235662
2.01247811,153.076121
2.751869721,196.8717414
3.45536868,238.5818561
3.462687908,278.2064651
2.931722139,315.7455683
3.498857462,357.455683
3.125801398,399.1657977
3.240798579,445.0469239
2.896420713,478.4150156
2.831984573,522.2106361
2.638339379,559.7497393
2.480586835,599.3743483
2.423335213,645.2554745
3.0047797,674.4525547
2.136515808,718.2481752
1.928524031,757.8727842
1.842549306,799.5828989
1.519732477,841.2930136
1.703873153,155.1616267
3.160945662,192.7007299
0.685168462,276.1209593
1.202049583,313.6600626
0.584989348,359.5411887
0.757387829,401.2513034
0.958479477,438.7904067
1.008875872,482.5860271
1.037718716,520.1251303
1.03786091,559.7497393
1.002132904,603.5453597
1.023806198,643.1699687
1.081349691,678.6235662
1.081506853,722.4191867
0.995502193,755.7872784
0.995666838,801.6684046