Altitude:0, 203.44274513656939 0.1397138140714592 0.6414878159259051
Altitude:1, 148.72121523434154 0.1382648350386494 0.4963880485539045
Altitude:2, 108.54737643125927 0.13532782521219247 0.3493569064010608
Altitude:3, 79.35010214631505 0.1291971111731843 0.23279881459082297
Altitude:4, 58.30026106940597 0.12330310449556553 0.1500265949809357
Altitude:5, 43.03208933115582 0.11975410981042983 0.09373943997350144
Altitude:6, 31.968299036990324 0.11946947380014583 0.05716771012986954
Altitude:7, 23.914193008577726 0.12334472413606504 0.03415218858037881
Altitude:8, 18.018661420184667 0.13230091871517285 0.020056727313468286
Altitude:9, 13.671100455280362 0.14714576417822756 0.011617984099798436
Altitude:10, 10.439187357563043 0.1606170891538619 0.006660684792850071
Altitude:11, 8.016914695288614 0.16414961023340302 0.0037933670870828632
Altitude:12, 6.1859430915717475 0.1564030906479515 0.002152668414460025
Altitude:13, 4.795476457805592 0.14049286009982745 0.0012248608348768893
Altitude:14, 3.7316698699335853 0.12033781489248685 0.0007008968191114788
Altitude:15, 2.913627844171053 0.09919697061579592 0.0004050936461554496
Altitude:16, 2.281810258452064 0.07926608798645383 0.00023747445370968999
Altitude:17, 1.7918907572859297 0.06175044527167232 0.00014177889576504917
Altitude:18, 1.4106827132489734 0.047108559118688165 8.654892832138845e-05
Altitude:19, 1.1131429129209711 0.03531672950347376 5.423249648078517e-05
Altitude:20, 0.8802543830473027 0.02608775772985598 3.501640991186515e-05
Altitude:21, 0.6975023639896136 0.019024906930633714 2.3382740429103823e-05
Altitude:22, 0.5537546268708095 0.013716485900059605 1.6200451217725643e-05
Altitude:23, 0.4404380275093415 0.009785888282049056 1.1663089076456675e-05
Altitude:24, 0.350926105603031 0.006912493974850905 8.669002920324699e-06
Altitude:25, 0.2800803152765719 0.0048356657953067496 6.491936383789884e-06
Altitude:26, 0.22390416481106257 0.003350175736808066 4.722033928767027e-06
Altitude:27, 0.17928103170561338 0.002298139845863443 3.203098013415338e-06
Altitude:28, 0.14377444134492942 0.0015624152547871568 2.144577737531674e-06
Altitude:29, 0.11547527272802834 0.0010564661138545747 1.422619177697906e-06
Altitude:30, 0.09288441688488247 0.0007130942467268287 9.30551930377883e-07
Altitude:31, 0.0748223520255697 0.00048139702901681006 5.989139776741761e-07
Altitude:32, 0.060359244560455154 0.00032535974526891684 3.793253089779976e-07
Altitude:33, 0.048760763927936907 0.00022027128080843937 2.367932967414556e-07
Altitude:34, 0.03944596970723778 0.00014941781075734648 1.4601756100850477e-07
Altitude:35, 0.03195450294242061 0.00010156267602522303 8.914845494934228e-08
Altitude:36, 0.025920969614828076 6.917046262398287e-05 5.399945764442711e-08
Altitude:37, 0.021054828798373407 4.719312852251345e-05 3.250766991022899e-08
Altitude:38, 0.017124861318065843 3.224493408415715e-05 1.947676812033784e-08
Altitude:39, 0.013946735378838263 2.2049586340976648e-05 3.045640902359923e-09
Altitude:40, 0.011373184333412134 1.5073008132192286e-05 2.4413594558803424e-09
Altitude:41, 0.009286450447807255 1.0294047965123855e-05 1.958956282131526e-09
Altitude:42, 0.007592239746469852 7.0258668673840025e-06 1.573454515418497e-09
Altitude:43, 0.0062149425557458254 4.794275804133969e-06 1.2650758407708509e-09
Altitude:44, 0.005093848884065309 3.2720979844013783e-06 1.0181420528758324e-09
Altitude:45, 0.00418014705522475 2.2343727739425897e-06 8.202121457890892e-10
Altitude:46, 0.0034345400070518806 1.5269501581371084e-06 6.614037027735616e-10
Altitude:47, 0.0028253494342618817 1.0445180726543616e-06 5.338586553117739e-10
Altitude:48, 0.002327005822509806 7.152927080113434e-07 4.313222535831011e-10
Altitude:49, 0.0019188441759950966 4.904141295172867e-07 3.488109099265445e-10
Altitude:50, 0.0015841422549512706 3.366469015567104e-07 2.8234988305703904e-10
Altitude:51, 0.0013093514681707132 2.3138332676137724e-07 2.2876590425718487e-10
Altitude:52, 0.0010834810247545377 1.59237316711737e-07 1.855230701221543e-10
Altitude:53, 0.0008976041694175298 1.0972896559505706e-07 1.5059284277499037e-10
Altitude:54, 0.0007444617960652286 7.571285945702757e-08 1.22350964962586e-10
Altitude:55, 0.0006181438349963317 5.2311673246530134e-08 9.94956358602083e-11
Altitude:56, 0.0005138328357300752 3.619237860508762e-08 8.098249820176876e-11
Altitude:57, 0.0004275973507181545 2.507460472652644e-08 6.597293184805971e-11
Altitude:58, 0.00035622524517494545 1.7396344591070482e-08 5.379289010682926e-11
Altitude:59, 0.00029708905583583086 1.2086389858004239e-08 4.3900097379901026e-11
Altitude:60, 0.00024803710701330625 8.409239280862438e-09 3.5857884581250116e-11
Altitude:61, 0.00020730535247665043 5.859278454569522e-09 2.931429918437213e-11
Altitude:62, 0.00017344591449260473 4.088496778687646e-09 2.3985410744150332e-11
Altitude:63, 0.00014526909038838044 2.8570582689304356e-09 1.9641956727081704e-11
Altitude:64, 0.00012179623443629438 1.9994632159925485e-09 1.6098650324427213e-11
Altitude:65, 0.00010222143201106574 1.4013572261804733e-09 1.3205611676703242e-11
Altitude:66, 8.58802901458378e-05 9.836192844232735e-10 1.0841494490148494e-11
Altitude:67, 7.222449462517962e-05 6.914313552798123e-10 8.907967562508247e-12
Altitude:68, 6.080104508964717e-05 4.867608886777153e-10 7.325280114626526e-12
Altitude:69, 5.123528936279391e-05 3.4318415862200506e-10 6.028694864618746e-12
Altitude:70, 4.321704673113758e-05 2.423169861159806e-10 4.965616487519421e-12
Altitude:71, 3.648924546569723e-05 1.7135053130716684e-10 4.093277841785663e-12
Altitude:72, 3.083860904140997e-05 1.2134775623398354e-10 3.3768739805643715e-12
Altitude:73, 2.608801352480824e-05 8.606415921577333e-11 2.788055972445922e-12
Altitude:74, 2.2090209639014922e-05 6.113031955021313e-11 2.3037140964048013e-12
Altitude:75, 1.872266041602366e-05 4.3484465225281005e-11 1.904993968159739e-12
Altitude:76, 1.588329177842125e-05 3.097804672219937e-11 1.5765003278299375e-12
Altitude:77, 1.3486990993142684e-05 2.2101186542012817e-11 1.3056521478176031e-12
Altitude:78, 1.146271842127579e-05 1.5791303977780027e-11 1.0821598622059773e-12
Altitude:79, 9.751122724723659e-06 1.1299530025528934e-11 8.976012371996438e-13
Altitude:80, 8.302569786680966e-06 8.09733037289483e-12 7.450769842280435e-13
Altitude:81, 7.075511946211132e-06 5.811142357950291e-12 6.189308922260455e-13
Altitude:82, 6.0351374524438105e-06 4.176557059201807e-12 5.145222054644333e-13
Altitude:83, 5.1522508870669715e-06 3.0061568425403354e-12 4.2804034321057556e-13
Altitude:84, 4.4023441495635e-06 2.166906762249836e-12 3.563539631012929e-13
Altitude:85, 3.764824823355954e-06 1.564239494391867e-12 2.9688790367126567e-13
Altitude:86, 3.2223746461000846e-06 1.1308363570565911e-12 2.475227766760143e-13
Altitude:87, 2.7604156393786444e-06 8.187076252152663e-13 2.065129755595626e-13
Altitude:88, 2.3666654109421275e-06 5.935940337084034e-13 1.724196697424332e-13
Altitude:89, 2.030766387765257e-06 4.3100360233327127e-13 1.4405600305149794e-13
Altitude:90, 1.7439764015217969e-06 3.1340217891295365e-13 1.2044223879203321e-13
Altitude:91, 1.498910236062626e-06 2.2821905986798584e-13 1.0076901790212217e-13
Altitude:92, 1.289323545698253e-06 1.6642924402636155e-13 8.436723977614867e-14
Altitude:93, 1.1099320340369388e-06 1.2154419480373405e-13 7.068335331759962e-14
Altitude:94, 9.562600032767595e-07 8.889240503700705e-14 5.925907113937543e-14
Altitude:95, 8.245133900752852e-07 6.510583645590309e-14 4.971470267600761e-14
Altitude:96, 7.114732347110766e-07 4.775281304077764e-14 4.1735450442681704e-14
Altitude:97, 6.144062165032785e-07 3.507524097902714e-14 3.506013432759118e-14
Altitude:98, 5.309894559774317e-07 2.5800247633237118e-14 2.947190692530167e-14
Altitude:99, 4.592472540311482e-07 1.900497819693088e-14 2.47906027783065e-14
Altitude:100, 3.974978275552315e-07 1.401941485977974e-14 2.086642944019162e-14
Altitude:101, 3.443084237133284e-07 1.0356429779046965e-14 1.7574761294821512e-14
Altitude:102, 2.9845746296331606e-07 7.661371019021645e-15 1.481184031742813e-14
Altitude:103, 2.58902583442218e-07 5.675677228081984e-15 1.2491223271982827e-14
Altitude:104, 2.2475364437182153e-07 4.210581525366597e-15 1.0540843684917804e-14
Altitude:105, 1.952499001296373e-07 3.1280811386658586e-15 8.900580518500749e-15
Altitude:106, 1.6974068489085454e-07 2.3271465022914526e-15 7.520244762170708e-15
Altitude:107, 1.4766905467199293e-07 1.7337136937468906e-15 6.357910958177108e-15
Altitude:108, 1.285579228218414e-07 1.293412447871187e-15 5.3785336220858425e-15
Altitude:109, 1.1199829950679549e-07 9.662748284601801e-16 4.552799132283307e-15
Altitude:110, 9.763930800496091e-08 7.228798996787004e-16 3.856172371386929e-15
Altitude:111, 8.51797027092368e-08 5.415409087253198e-16 3.268104553388561e-15
Altitude:112, 7.43606573450052e-08 4.062503198761818e-16 2.7713745462312773e-15
Altitude:113, 6.495962844402319e-08 3.0517649614235194e-16 2.3515408310852184e-15
Altitude:114, 5.678512975386102e-08 2.2956246250024694e-16 1.996485215214681e-15
Altitude:115, 4.967227897488757e-08 1.7291812623553537e-16 1.6960326889149526e-15
Altitude:116, 4.3478999813503695e-08 1.3042696207573388e-16 1.441634514367484e-15
Altitude:117, 3.8082780494500925e-08 9.850964206321114e-17 1.226103858359693e-15
Altitude:118, 3.337790514795514e-08 7.450266943963221e-17 1.0433951159247487e-15
Altitude:119, 2.927308734452578e-08 5.642139421273766e-17 8.884195871313594e-16
Altitude:120, 2.5689445887465713e-08 4.278502257639462e-17 7.568914211091252e-16
Altitude:121, 2.2558772105793228e-08 3.2487231543220386e-17 6.451987763824164e-16
Altitude:122, 1.982204560306425e-08 2.4700376671344704e-17 5.502960028400895e-16
Altitude:123, 1.7428161927630148e-08 1.8804477453867895e-17 4.69613359520866e-16
Altitude:124, 1.53328411336841e-08 1.4334502311398762e-17 4.0098136960326544e-16
Altitude:125, 1.3497690857334171e-08 1.0941186425854355e-17 3.4256740074445744e-16
Altitude:126, 1.1889401472172303e-08 8.361870362744569e-18 2.9282246265938584e-16
Altitude:127, 1.0479054226543264e-08 6.398768521581261e-18 2.504365489401553e-16
Altitude:128, 9.241526094170022e-09 4.9027534957397376e-18 2.1430112843179414e-16
Altitude:129, 8.154977470127684e-09 3.76124071502811e-18 1.8347762277532676e-16
Altitude:130, 7.200410881929279e-09 2.8891249513564404e-18 1.5717089906745171e-16
Altitude:131, 6.3612906167171165e-09 2.221991242874798e-18 1.3470696662955488e-16
Altitude:132, 5.623214637400411e-09 1.7110230064979951e-18 1.155142001322182e-16
Altitude:133, 4.97363141280056e-09 1.3191782112995123e-18 9.910752233786749e-17
Altitude:134, 4.401595352983136e-09 1.0183141757424399e-18 8.50750722712054e-17
Altitude:135, 3.897555449263891e-09 7.870228983397627e-19 7.30669618242978e-17
Altitude:136, 3.4531724927715742e-09 6.089992572145216e-19 6.278578823552683e-17
Altitude:137, 3.0611609061349915e-09 4.718093578295533e-19 5.397862369218889e-17
Altitude:138, 2.7151517869139955e-09 3.6595976044392686e-19 4.6430248273142354e-17
Altitude:139, 2.409574243279422e-09 2.8419323653358233e-19 3.995743004650476e-17
Altitude:140, 2.139552514409721e-09 2.209552804512654e-19 3.4404087593788665e-17
Altitude:141, 1.9008167204959125e-09 1.7198948207036618e-19 2.96371965649217e-17
Altitude:142, 1.6896253889356376e-09 1.3403025660652229e-19 2.554332392560798e-17
Altitude:143, 1.502698161726669e-09 1.0456921762320134e-19 2.2025692044534128e-17
Altitude:144, 1.3371573105881988e-09 8.167732617959004e-20 1.900169027005948e-17
Altitude:145, 1.1904768763393006e-09 6.386933783887802e-20 1.6400764653332502e-17
Altitude:146, 1.0604384121394835e-09 5.0000365864552577e-20 1.4162627394991825e-17
Altitude:147, 9.450924502492767e-10 3.918685883055953e-20 1.2235736765775251e-17
Altitude:148, 8.427249323282997e-10 3.074615939952075e-20 1.057600596133969e-17
Altitude:149, 7.518279467871353e-10 2.4150221101561948e-20 9.145705835372303e-18
Altitude:150, 6.710742057666436e-10 1.8990125405827756e-20 7.912531910716428e-18
Altitude:151, 5.992947709958456e-10 1.494884735168982e-20 6.848810661293989e-18
Altitude:152, 5.354596038397562e-10 1.1780328218860246e-20 5.9308239265969264e-18
Altitude:153, 4.786605717960236e-10 9.293376230604672e-21 5.1382335813584614e-18
Altitude:154, 4.280965928213929e-10 7.339267324226997e-21 4.45359133279115e-18
Altitude:155, 3.83060641266388e-10 5.802184764713431e-21 3.861920837833981e-18
Altitude:156, 3.429283758121284e-10 4.591839265926093e-21 3.350361291394809e-18
Altitude:157, 3.071481814440895e-10 3.637765834029814e-21 2.9078632908150985e-18
Altitude:158, 2.7523244485584204e-10 2.884911437841859e-21 2.5249291797426425e-18
Altitude:159, 2.4674990634514575e-10 2.2902176249364947e-21 2.19339125660151e-18
Altitude:160, 2.2131895175442934e-10 1.8199709588440916e-21 1.9062222327799205e-18
Altitude:161, 1.9860172575513142e-10 1.4477466463946196e-21 1.6573731720019715e-18
Altitude:162, 1.7829896315652736e-10 1.1528108833452014e-21 1.4416348590697622e-18
Altitude:163, 1.601454482575493e-10 9.18878224953816e-22 1.2545191534227675e-18
Altitude:164, 1.4390602383277725e-10 7.33143970832106e-22 1.0921573977420592e-18
Altitude:165, 1.2937208139053427e-10 5.855298537155312e-22 9.51213388433834e-19
Altitude:166, 1.1635847306787952e-10 4.680953911061477e-22 8.288087853174637e-19
Altitude:167, 1.0470079311192239e-10 3.745780491600412e-22 7.224591523886985e-19
Altitude:168, 9.425298349243099e-11 3.0003367118567566e-22 6.3001908870966905e-19
Altitude:169, 8.488522392925277e-11 2.405550260555643e-22 5.49635135538791e-19
Altitude:170, 7.64820716137344e-11 1.9305127565987764e-22 4.797053388752356e-19
Altitude:171, 6.894082025461208e-11 1.5507498948025736e-22 4.188445108260102e-19
Altitude:172, 6.217005187090458e-11 1.246863101719328e-22 3.6585437298159903e-19
Altitude:173, 5.608835806081757e-11 1.0034618323264386e-22 3.1969788400798756e-19
Altitude:174, 5.062321036025402e-11 8.083235289736944e-23 2.794771550596729e-19
Altitude:175, 4.570996182239766e-11 6.517320993074259e-23 2.4441444304140958e-19
Altitude:176, 4.129096414874322e-11 5.259564910109995e-23 2.138357854422832e-19
Altitude:177, 3.731478662330035e-11 4.24839287708934e-23 1.8715690333832687e-19
Altitude:178, 3.373552478140859e-11 3.434717728337979e-23 1.6387105282422507e-19
Altitude:179, 3.051218821378341e-11 2.779370251770526e-23 1.435385509606681e-19
Altitude:180, 2.7608158192141922e-11 2.251066062273636e-23 1.257777414748885e-19
Altitude:181, 2.4990706928477602e-11 1.8247951121434908e-23 1.102571989155109e-19
Altitude:182, 2.2630571266201963e-11 1.4805448447918515e-23 9.668899857857223e-20
Altitude:183, 2.0501574465653407e-11 1.2022869859020594e-23 8.48229040028134e-20
Altitude:184, 1.858029050435239e-11 9.771727796221508e-24 7.444134478614983e-20
Altitude:185, 1.6845745977265915e-11 7.948931078078636e-24 6.535507541788851e-20
Altitude:186, 1.527915526593713e-11 6.471691764787752e-24 5.739942119246542e-20
Altitude:187, 1.3863685157824065e-11 5.273467439995349e-24 5.043103044463706e-20
Altitude:188, 1.2584245547451289e-11 4.300725708129226e-24 4.4325063642234494e-20
Altitude:189, 1.1427303246766495e-11 3.5103623255284695e-24 3.8972759562810164e-20
Altitude:190, 1.0380716280148808e-11 2.867639304750209e-24 3.42793270966981e-20
Altitude:191, 9.433586345760442e-12 2.34453685484492e-24 3.016211835920455e-20
Altitude:192, 8.576127394492148e-12 1.9184348423764213e-24 2.6549044927728885e-20
Altitude:193, 7.799548515157367e-12 1.5710568487030691e-24 2.3377204290011702e-20
Altitude:194, 7.095949523750678e-12 1.2876237104005073e-24 2.0591688120641667e-20
Altitude:195, 6.45822783896245e-12 1.0561743619478532e-24 1.8144547899892404e-20
Altitude:196, 5.879995388736265e-12 8.670204320408286e-25 1.5993896742022928e-20
Altitude:197, 5.355504436115279e-12 7.123078516754713e-25 1.4103129186508755e-20
Altitude:198, 4.8795813392466125e-12 5.856641782675657e-25 1.2440243191265035e-20
Altitude:199, 4.447567372237731e-12 4.8191468792260035e-25 1.0977250708344756e-20
Altitude:200, 4.0552658323487275e-12 3.9685369255248095e-25 9.689665068244235e-21
Altitude:201, 3.6988947463229626e-12 3.2706022013264986e-25 8.556054990351386e-21
Altitude:202, 3.375044565871538e-12 2.697493265556026e-25 7.55765640981755e-21
Altitude:203, 3.0806403106320475e-12 2.226520287645598e-25 6.6780344957465576e-21
Altitude:204, 2.812907677373645e-12 1.8391825707110116e-25 5.9027892582774214e-21
Altitude:205, 2.5693426877467575e-12 1.5203834461767748e-25 5.219299025386884e-21
Altitude:206, 2.347684494287446e-12 1.2577945470842695e-25 4.616496833367541e-21
Altitude:207, 2.1458910064020205e-12 1.0413405366638874e-25 4.0846754345510406e-21
Altitude:208, 1.9621170353065796e-12 8.627810665718018e-26 3.6153171962132494e-21
Altitude:209, 1.7946946899329074e-12 7.153713645165188e-26 3.2009456579887414e-21
Altitude:210, 1.6421157851256215e-12 5.935865217592587e-26 2.8349959420942336e-21
Altitude:211, 1.5030160494761353e-12 4.928974018565783e-26 2.5117015803010303e-21
Altitude:212, 1.376160943246339e-12 4.09588367997388e-26 2.2259956417279567e-21
Altitude:213, 1.2604329173632184e-12 3.4060888592225506e-26 1.973424322887992e-21
Altitude:214, 1.1548199627104624e-12 2.8345259184974006e-26 1.7500714018205595e-21
Altitude:215, 1.0584053151657214e-12 2.3605866313500558e-26 1.5524921665848378e-21
Altitude:216, 9.703581962607027e-13 1.9673132676987113e-26 1.3776556091911924e-21
Altitude:217, 8.899254821819368e-13 1.6407413741145493e-26 1.2228938329377405e-21
Altitude:218, 8.164242052594796e-13 1.3693629452882044e-26 1.0858577573065332e-21
Altitude:219, 7.492348022701533e-13 1.1436876766591962e-26 9.64478322838793e-22
Altitude:220, 6.877950329505518e-13 9.558839563063974e-27 8.5693250114641e-22
Altitude:221, 6.315945001972013e-13 7.994846645935339e-27 7.616135044995179e-22
Altitude:222, 5.801697106378569e-13 6.691457536206673e-27 6.771046670491974e-22
Altitude:223, 5.330996206854735e-13 5.6044800359681134e-27 6.021565372478962e-22
Altitude:224, 4.900016189217391e-13 4.6973426123498785e-27 5.356667797582301e-22
Altitude:225, 4.505279007767532e-13 3.939758327404503e-27 4.766625362530813e-22
Altitude:226, 4.1436219604304166e-13 3.306627604892073e-27 4.242849390097385e-22
Altitude:227, 3.812168138461584e-13 2.7771360704835365e-27 3.777755099581191e-22
Altitude:228, 3.508299733436579e-13 2.3340116173014573e-27 3.364642116106043e-22
Altitude:229, 3.2296339168706533e-13 1.962911730857949e-27 2.997589457321436e-22
Altitude:230, 2.9740010369933717e-13 1.6519178702498678e-27 2.6713632126960448e-22
Altitude:231, 2.739424903308773e-13 1.39111828250619e-27 2.3813353544022e-22
Altitude:232, 2.524104952935253e-13 1.1722639806820402e-27 2.123412314062073e-22
Altitude:233, 2.3264001136375334e-13 9.884850693009544e-28 1.8939721300622593e-22
Altitude:234, 2.144814197197567e-13 8.340565349727357e-28 1.68980911895159e-22
Altitude:235, 1.9779826735567342e-13 7.042044826533314e-28 1.508085154408854e-22
Altitude:236, 1.824660691206931e-13 5.949455548984469e-28 1.3462867508256778e-22
Altitude:237, 1.6837122227963962e-13 5.029537384982956e-28 1.2021872478007352e-22
Altitude:238, 1.5541002270153521e-13 4.254499073357559e-28 1.0738134786190305e-22
Altitude:239, 1.4348777286818565e-13 3.601102592081717e-28 9.594163816860377e-23
Altitude:240, 1.3251797286913876e-13 3.049904088955111e-28 8.574450802885771e-23
Altitude:241, 1.2242158642420721e-13 2.584623997969768e-28 7.665240141695982e-23
Altitude:242, 1.1312637476051524e-13 2.191623523686464e-28 6.854327572838404e-23
Altitude:243, 1.0456629187698147e-13 1.8594688531688074e-28 6.130882006607281e-23
Altitude:244, 9.668093536375198e-14 1.5785680866073167e-28 5.48528818338998e-23
Altitude:245, 8.941504751457606e-14 1.3408688158596647e-28 4.909007685485386e-23
Altitude:246, 8.271806198331729e-14 1.1396063488324205e-28 4.3944561230683994e-23
Altitude:247, 7.654369169742513e-14 9.690940993406272e-29 3.934894578978746e-23
Altitude:248, 7.084955415676436e-14 8.245489037538788e-29 3.524333627732218e-23
Altitude:249, 6.559683062029318e-14 7.01945173287656e-29 3.157448446607706e-23
Altitude:250, 6.074995602002377e-14 5.978928796467326e-29 2.829503714378391e-23
Altitude:251, 5.627633674523967e-14 5.09535363044009e-29 2.5362871493012386e-23
Altitude:252, 5.2146093713542435e-14 4.344637717706131e-29 2.2740506750440188e-23
Altitude:253, 4.8331828391885846e-14 3.7064548819219264e-29 2.0394583236556616e-23
Altitude:254, 4.4808409653207977e-14 3.1636427617148057e-29 1.8295400905330624e-23
Altitude:255, 4.155277955487734e-14 2.701701893418451e-29 1.6416510493941314e-23
Altitude:256, 3.8543776306242267e-14 2.3083757056157068e-29 1.4734351171078816e-23
Altitude:257, 3.576197285599638e-14 1.9732977065774264e-29 1.3227929302299355e-23
Altitude:258, 3.31895296776586e-14 1.6876948132238765e-29 1.187853358450406e-23
Altitude:259, 3.081006046475228e-14 1.4441379184824035e-29 1.0669482359335252e-23
Altitude:260, 2.860850956772607e-14 1.2363322786165695e-29 9.585899406394694e-24
Altitude:261, 2.6571040113504478e-14 1.0589413726371824e-29 8.614514949756062e-24
Altitude:262, 2.4684931846980748e-14 9.074387523216286e-30 7.743488992376925e-24
Altitude:263, 2.2938487822777856e-14 7.779831992390232e-30 6.962254428925687e-24
Altitude:264, 2.1320949156120335e-14 6.673133004683669e-30 6.261377683678001e-24
Altitude:265, 1.9822417114536644e-14 5.726583181777688e-30 5.6324348812994825e-24
Altitude:266, 1.8433781898071693e-14 4.9166288146172236e-30 5.0679017887094855e-24
Altitude:267, 1.7146657515422114e-14 4.2232346116792416e-30 4.561055969508136e-24
Altitude:268, 1.595332221750803e-14 3.629348608261478e-30 4.105889771881632e-24
Altitude:269, 1.4846663999008767e-14 3.1204513236702166e-30 3.69703292932367e-24
Altitude:270, 1.3820130722830002e-14 2.6841749819295796e-30 3.329683693431994e-24
Altitude:271, 1.2867684462729989e-14 2.309980865354718e-30 2.9995475416412268e-24
Altitude:272, 1.1983759695869653e-14 1.9888852818374204e-30 2.702782611987354e-24
Altitude:273, 1.1163225010180409e-14 1.713226732718199e-30 2.4359511135510077e-24
Altitude:274, 1.0401348021504178e-14 1.4764681399898074e-30 2.195976046598338e-24
Altitude:275, 9.69376322275641e-15 1.273028834429052e-30 1.9801026419472566e-24
Altitude:276, 9.036442512127714e-15 1.0981418328795766e-30 1.7858639958857555e-24
Altitude:277, 8.425668169850622e-15 9.47732689392473e-31 1.6110504360868056e-24
Altitude:278, 7.858008073489721e-15 8.183168919905026e-31 1.4536822062916993e-24
Altitude:279, 7.330292960292946e-15 7.069131198510153e-31 1.311985103869247e-24
Altitude:280, 6.8395955620219934e-15 6.1096977140977975e-31 1.1843687453957773e-24
Altitude:281, 6.383211453031969e-15 5.283024673088467e-31 1.0694071717583624e-24
Altitude:282, 5.958641466329861e-15 4.570406601873668e-31 9.658215365026304e-25
Altitude:283, 5.563575545042272e-15 3.955819417184107e-31 8.724646497062747e-25
Altitude:284, 5.19587790828145e-15 3.4255299806431475e-31 7.883071749826808e-25
Altitude:285, 4.853573420915185e-15 2.967762991645393e-31 7.124252996778175e-25
Altitude:286, 4.534835066328162e-15 2.572416866064705e-31 6.439897182487434e-25
Altitude:287, 4.237972429982584e-15 2.2308213633271838e-31 5.822557864926065e-25
Altitude:288, 3.9614211095331065e-15 1.9355308913664603e-31 5.265547199890556e-25
Altitude:289, 3.703732974493541e-15 1.6801484359673264e-31 4.762857240533634e-25
Altitude:290, 3.463567205051312e-15 1.4591756046571842e-31 4.309089548721246e-25
Altitude:291, 3.239682045644503e-15 1.2678846645771467e-31 3.899392224866537e-25
Altitude:292, 3.0309272144031343e-15 1.102209064753335e-31 3.5294035605706927e-25
Altitude:293, 2.8362369145633105e-15 9.58649608128842e-32 3.1952016052202993e-25
Altitude:294, 2.654623398529936e-15 8.34194019106534e-32 2.8932590148740517e-25
Altitude:295, 2.4851710394329896e-15 7.262480391352824e-32 2.620402620409333e-25
Altitude:296, 2.3270308688284987e-15 6.325764235682708e-32 2.373777212951333e-25
Altitude:297, 2.1794155426707192e-15 5.5125240774069e-32 2.150813098926829e-25
Altitude:298, 2.041594700856475e-15 4.806143919012563e-32 1.9491970254261339e-25
Altitude:299, 1.9128906885438686e-15 4.192287975382547e-32 1.7668461195899594e-25
Altitude:300, 1.7926746100969076e-15 3.6585821235780227e-32 1.601884524053114e-25
Altitude:301, 1.6803626889322285e-15 3.194340497426032e-32 1.4526224446038323e-25
Altitude:302, 1.5754129087582475e-15 2.7903306173110183e-32 1.31753735661712e-25
Altitude:303, 1.477321913724373e-15 2.4385716195871153e-32 1.1952571439108097e-25
Altitude:304, 1.3856221468507839e-15 2.1321609999901284e-32 1.0845449678169598e-25
Altitude:305, 1.299879207805928e-15 1.8651258886525766e-32 9.842856857870122e-26
Altitude:306, 1.219689412651445e-15 1.6322954398631926e-32 8.934736580442201e-26
Altitude:307, 1.144677539594966e-15 1.4291913624960068e-32 8.112017979174992e-26
Altitude:308, 1.0744947460934048e-15 1.2519339067983609e-32 7.366517367664549e-26
Altitude:309, 1.0088166438410863e-15 1.0971608768469255e-32 6.690849880383305e-26
Altitude:310, 9.473415192693117e-16 9.619575100532812e-33 6.078350071651546e-26
Altitude:311, 8.897886881851522e-16 8.437955764001263e-33 5.523000548729623e-26
Altitude:312, 8.358969740941724e-16 7.404806292388176e-33 5.0193678117606094e-26
Altitude:313, 7.854233005936152e-16 6.501065932028525e-33 4.5625445599563564e-26
Altitude:314, 7.381413889933944e-16 5.710168767272363e-33 4.148097800842092e-26
Altitude:315, 6.938405530302831e-16 5.017710859905981e-33 3.772022168572628e-26
Altitude:316, 6.523245831896926e-16 4.411164046294151e-33 3.430697919183173e-26
Altitude:317, 6.134107137452645e-16 3.87962839912378e-33 3.120853125940507e-26
Altitude:318, 5.769286661736184e-16 3.41361732521432e-33 2.839529647417995e-26
Altitude:319, 5.427197631035136e-16 3.0048710840493464e-33 2.5840524851567623e-26
Altitude:320, 5.106361074201088e-16 2.6461950571418887e-33 2.3520021873596013e-26
Altitude:321, 4.805398215683993e-16 2.3313193161971526e-33 2.1411899904866669e-26
Altitude:322, 4.523023424894617e-16 2.0547766676742346e-33 1.9496354223329062e-26
Altitude:323, 4.2580376798051707e-16 1.8117969331162785e-33 1.775546118556143e-26
Altitude:324, 4.00932250598882e-16 1.5982156539594613e-33 1.6172996300510295e-26
Altitude:325, 3.775834355322054e-16 1.4103954715306474e-33 1.4734270213385116e-26
Altitude:326, 3.556599391352406e-16 1.2451582872345905e-33 1.3425980805446537e-26
Altitude:327, 3.3507086508942486e-16 1.0997264458549262e-33 1.223607979829668e-26
Altitude:328, 3.157313553766566e-16 9.716715075994294e-34 1.1153652415179295e-26
Altitude:329, 2.97562173475291e-16 8.588695434397187e-34 1.0168808798751542e-26
Altitude:330, 2.8048931738574146e-16 7.594621701900375e-34 9.27258601657085e-27
Altitude:331, 2.6444366027651004e-16 6.718226518396323e-34 8.456859603735771e-27
Altitude:332, 2.493606167105807e-16 5.945264149011815e-34 7.71426369816711e-27
Altitude:333, 2.3517983256768716e-16 5.263253464736429e-34 7.03811891916961e-27
Altitude:334, 2.2184489692144411e-16 4.661253829165197e-34 6.422367225323602e-27
Altitude:335, 2.0930307426247317e-16 4.129670260108874e-34 5.861513064429851e-27
Altitude:336, 1.9750505558044707e-16 3.660084053004111e-34 5.350570197077226e-27
Altitude:337, 1.8640472693031356e-16 3.245105006925717e-34 4.885013637238203e-27
Altitude:338, 1.7595895421145722e-16 2.8782424856071316e-34 4.4607362088421256e-27
Altitude:339, 1.661273829841165e-16 2.553793226481609e-34 4.0740092671864515e-27
Altitude:340, 1.568722522354216e-16 2.266743741607813e-34 3.4500295502516203e-29
Altitude:341, 1.4815822108875212e-16 2.0126853827299487e-34 3.258841115920625e-29
Altitude:342, 1.399522075251069e-16 1.7877402678893473e-34 3.0787701793008855e-29
Altitude:343, 1.322232382544205e-16 1.5884963876469005e-34 2.909140786212457e-29
Altitude:344, 1.2494230893876428e-16 1.41195069844507e-34 2.749319825325675e-29
Altitude:345, 1.180822540282961e-16 1.2554592031610297e-34 2.5987142048741286e-29
Altitude:346, 1.1161762552548738e-16 1.1166930769650007e-34 2.456768222366997e-29
Altitude:347, 1.055245800434537e-16 9.936001225219074e-35 2.3229611136416374e-29
Altitude:348, 9.978077357078823e-17 8.84371004660306e-35 2.1968047685966626e-29
Altitude:349, 9.43652633983767e-17 7.874097878817714e-35 2.0778416018702828e-29
Altitude:350, 8.925841670336264e-17 7.013082555199023e-35 1.965642567580842e-29
Altitude:351, 8.444182532230106e-17 6.248234390546271e-35 1.8598053080383136e-29
Altitude:352, 7.989822627948177e-17 5.568578665320593e-35 1.759952427064645e-29
Altitude:353, 7.561142766790959e-17 4.964421579626299e-35 1.6657298792380912e-29
Altitude:354, 7.1566239509513e-17 4.427196883248523e-35 1.576805467001712e-29
Altitude:355, 6.774840924809259e-17 3.9493310744206263e-35 1.4928674381557145e-29
Altitude:356, 6.41445615534609e-17 3.5241254184069277e-35 1.4136231767896595e-29
Altitude:357, 6.074214213828589e-17 3.1456528041330563e-35 1.3387979812068424e-29
Altitude:358, 5.752936531053036e-17 2.808667154493079e-35 1.2681339228533517e-29
Altitude:359, 5.44951650041676e-17 2.5085235035312046e-35 1.201388780690283e-29
Altitude:360, 5.162914904917562e-17 2.2411073178143173e-35 1.1383350458422871e-29
Altitude:361, 4.892155645880559e-17 2.0027718678150555e-35 1.0787589917216385e-29
Altitude:362, 4.636321752784599e-17 1.7902829391891167e-35 1.0224598051659787e-29
Altitude:363, 4.3945516550195906e-17 1.6007707128908016e-35 9.692487744423736e-30
Altitude:364, 4.166035697757418e-17 1.4316883827049765e-35 9.189485302617253e-30
Altitude:365, 3.95001288537335e-17 1.2807764990254224e-35 8.713923362181292e-30
Altitude:366, 3.74576783701692e-17 1.1460321058731027e-35 8.264234253183982e-30
Altitude:367, 3.552627940008874e-17 1.0256818586550408e-35 7.8389437949964e-30
Altitude:368, 3.369960687742561e-17 9.181580688188376e-36 7.436665492489212e-30
Altitude:369, 3.19717118969441e-17 8.220763575557495e-36 7.056095106391225e-30
Altitude:370, 3.033699842011322e-17 7.362135463047559e-36 6.696005572815021e-30
Altitude:371, 2.87902014794055e-17 6.594853311770778e-36 6.355242248678136e-30
Altitude:372, 2.732636678111324e-17 5.909246382785879e-36 6.0327184613556326e-30
Altitude:373, 2.594083161366166e-17 5.29661954647939e-36 5.727411342388278e-30
Altitude:374, 2.4629206974797447e-17 4.7490911409148e-36 5.438357926454282e-30
Altitude:375, 2.3387360836983707e-17 4.259483508584012e-36 5.1646514980997294e-30
Altitude:376, 2.2211402475851015e-17 3.821278441491977e-36 4.905438169916731e-30
Altitude:377, 2.1097667791693166e-17 3.42863328845394e-36 4.6599136769702094e-30
Altitude:378, 2.0042705558764802e-17 3.076428499456239e-36 4.427320373306368e-30
Altitude:379, 1.9043264541573984e-17 2.7602948580391798e-36 4.20694441733612e-30
Altitude:380, 1.809628142148962e-17 2.4765665910779476e-36 3.998113133780296e-30
Altitude:381, 1.719886948081424e-17 2.2221300233805768e-36 3.800192540693335e-30
Altitude:382, 1.634830799504463e-17 1.99418382181193e-36 3.612585030855768e-30
Altitude:383, 1.5542032287355646e-17 1.789984415747587e-36 3.4347271975437816e-30
Altitude:384, 1.4777624402437213e-17 1.6066969637809997e-36 3.266087795354859e-30
Altitude:385, 1.4052804359678838e-17 1.4414815053138288e-36 3.1061658273895335e-30
Altitude:386, 1.3365421948378919e-17 1.2918882133016074e-36 2.95448875067093e-30
Altitude:387, 1.2713449030138016e-17 1.1564990580633448e-36 2.810610792222188e-30
Altitude:388, 1.2094972315918716e-17 1.0353490814738635e-36 2.6741113687259038e-30
Altitude:389, 1.1508186587410614e-17 9.296988085095261e-37 2.5445936031574553e-30
